Jakeâ€™s Trulia Tidy Text Analysis
…
## Warning in eval(substitute(expr), envir, enclos): NAs introduced by
## coercion

total_words <- author_words %>% 
  group_by(author) %>% 
  summarize(total = sum(n))

author_words <- left_join(author_words, total_words, by = "author")

author_words

## # A tibble: 9,608 x 4
##    author    word     n total
##    <fctr>   <chr> <int> <int>
##  1  Ralph    home   953 40038
##  2  Ralph   homes   711 40038
##  3  Ralph housing   543 40038
##  4  Ralph markets   450 40038
##  5  Ralph   price   377 40038
##  6  Ralph   month   372 40038
##  7  Ralph     san   347 40038
##  8  Ralph  metros   345 40038
##  9  Ralph     u.s   340 40038
## 10  Ralph  market   337 40038
## # ... with 9,598 more rows
…
